[
  {
    "roleKey": "user",
    "resources": [
      {
        "resourceKey": "users",
        "actions": [
          "read",
          "updateMe"
        ]
      },
      {
        "resourceKey": "roles",
        "actions": [
          "read"
        ]
      },
      {
        "resourceKey": "auctionators",
        "actions": [
          "create",
          "read"
        ]
      },
      {
        "resourceKey": "items",
        "actions": [
          "create",
          "read",
          "update"
        ]
      },
      {
        "resourceKey": "recipes",
        "actions": [
          "create",
          "read"
        ]
      }
    ]
  }
]
